Place,Name,BirthYear,Country,BodyweightKg,Squat1Kg,Squat2Kg,Squat3Kg,Best3SquatKg,Bench1Kg,Bench2Kg,Bench3Kg,Best3BenchKg,Deadlift1Kg,Deadlift2Kg,Deadlift3Kg,Best3DeadliftKg,TotalKg,WeightClassKg,Division,Event,Equipment,Sex
1,Alexander Moiseev,1954,Belarus,57.94,110,-120,120,120,77.5,-85,-85,77.5,130,142.5,-152.5,142.5,340,59,Masters 3,SBD,Single-ply,M
2,Elmar Poldsalu,1948,Estonia,56.92,60,80,110,110,45,-50,,45,140,150,160,160,315,59,Masters 3,SBD,Single-ply,M
1,Martti Kilpeläinen,1955,Finland,65.01,170,175,180,180,122.5,127.5,130,130,200,215,-232.5,215,525,66,Masters 3,SBD,Single-ply,M
2,Patrick Blard,1954,France,65.68,167.5,175,177.5,177.5,97.5,102.5,-107.5,102.5,190,202.5,-207.5,202.5,482.5,66,Masters 3,SBD,Single-ply,M
3,Markku Kemppainen,1949,Finland,65.42,135,145,150,150,105,112.5,-117.5,112.5,-165,175,185,185,447.5,66,Masters 3,SBD,Single-ply,M
4,Paul Mears,1953,USA,65.71,145,160,170,170,77.5,85,-90,85,172.5,182.5,-195,182.5,437.5,66,Masters 3,SBD,Single-ply,M
1,Steve Walker,1956,Britain,73.3,200,210,215,215,150,-160,160,160,220,235,240,240,615,74,Masters 3,SBD,Single-ply,M
2,Claude Couturier,1952,France,73.39,195,207.5,215,215,120,-127.5,127.5,127.5,195,205,-207.5,205,547.5,74,Masters 3,SBD,Single-ply,M
3,Hari Singh Cheema,1953,Britain,72.97,-190,190,-210,190,120,125,-130,125,195,205,210,210,525,74,Masters 3,SBD,Single-ply,M
4,Roger Remy,1953,Belgium,73.89,180,190,-197.5,190,90,100,105,105,200,215,220,220,515,74,Masters 3,SBD,Single-ply,M
1,Jerry Marentette,1956,Canada,82.5,215,225,227.5,227.5,-155,-155,155,155,235,245,250,250,632.5,83,Masters 3,SBD,Single-ply,M
2,Andreas Petrenz,1956,Germany,81.66,205,-220,220,220,165,172.5,-180,172.5,200,210,215,215,607.5,83,Masters 3,SBD,Single-ply,M
3,Guenter Luedecke,1948,Germany,82.52,192.5,200,205,205,130,-135,-135,130,200,210,-217.5,210,545,83,Masters 3,SBD,Single-ply,M
4,Michel Dudziak,1948,France,82.24,-175,180,190,190,95,-100,-100,95,220,227.5,235,235,520,83,Masters 3,SBD,Single-ply,M
5,Dominique Mouchet,1955,France,82.16,190,202.5,-207.5,202.5,95,100,-102.5,100,190,202.5,-212.5,202.5,505,83,Masters 3,SBD,Single-ply,M
DQ,William Clayton,1953,USA,81.09,190,200,-205,200,-125,-125,-125,,100,,,100,,83,Masters 3,SBD,Single-ply,M
1,Ludwig Werner,1938,Germany,58.48,90,-100,110,110,-75,75,-80,75,130,140,150,150,335,59,Masters 4,SBD,Single-ply,M
2,Kim-Won Pok,1940,Hong Kong,51.78,95,105,110,110,67.5,-70,-75,67.5,120,-132.5,-132.5,120,297.5,59,Masters 4,SBD,Single-ply,M
1,Mats Johansson,1945,Sweden,65.2,140,-150,150,150,80,87.5,-92.5,87.5,160,170,-177.5,170,407.5,66,Masters 4,SBD,Single-ply,M
2,Peter Barrett,1946,Britain,64.8,-130,-130,130,130,65,70,75,75,155,167.5,177.5,177.5,382.5,66,Masters 4,SBD,Single-ply,M
1,Dan Oppenheim,1945,South Africa,72.87,150,162.5,170,170,110,115,-120,115,177.5,201,216,216,501,74,Masters 4,SBD,Single-ply,M
2,Mitsuru Osawa,1941,Japan,72.45,140,150,-160,150,107.5,110,112.5,112.5,140,160,167.5,167.5,430,74,Masters 4,SBD,Single-ply,M
3,Jacques Beauverger,1946,France,72.88,-140,142.5,-152.5,142.5,85,90,92.5,92.5,175,185,-197.5,185,420,74,Masters 4,SBD,Single-ply,M
1,Janos Fabri,1945,Hungary,81.77,200,210,215,215,100,110,115,115,230,260.5,,260.5,590.5,83,Masters 4,SBD,Single-ply,M
2,Jiří Poutník,1946,Czechia,80.17,-110,110,130,130,-75,75,-90,75,110,140,155,155,360,83,Masters 4,SBD,Single-ply,M
DQ,Toshio Kitano,1946,Japan,82.46,210,225,235,235,-140,-140,-140,,185,215,230,230,,83,Masters 4,SBD,Single-ply,M
1,Kazimierz Forys,1945,Germany,91.31,170,185,195,195,-130,-130,130,130,210,225,-245.5,225,550,93,Masters 4,SBD,Single-ply,M
2,Michael Ellender,1945,Britain,88.35,145,-155,-155,145,115,122.5,127.5,127.5,205,220,-225,220,492.5,93,Masters 4,SBD,Single-ply,M
3,Kari Mattila,1945,Sweden,86.49,-165,-165,165,165,100,-107.5,107.5,107.5,190,205,-225,205,477.5,93,Masters 4,SBD,Single-ply,M
DQ,Steen Wissing,1945,Denmark,91.81,-200,-200,-200,,-120,120,-127.5,120,200,-205,,200,,93,Masters 4,SBD,Single-ply,M
1,Claudir Lopes,1940,Brazil,98.41,-180,180,-190,180,155,166,-170,166,170,182.5,185,185,531,105,Masters 4,SBD,Single-ply,M
2,William Helmich,1942,USA,103.58,-135,-135,135,135,135,142.5,147.5,147.5,200,215,220,220,502.5,105,Masters 4,SBD,Single-ply,M
3,Viktor Gustsin,1946,Estonia,94.08,145,152.5,-160,152.5,55,60,-65,60,185,195,200,200,412.5,105,Masters 4,SBD,Single-ply,M
4,Guenther Wagenleitner,1943,Austria,95.06,120,-130,-130,120,-100,100,-105,100,170,180,-190,180,400,105,Masters 4,SBD,Single-ply,M
DQ,Raymond Curtis,1932,USA,93.7,-75,-75,-75,,-80,80,-105,80,137.5,-142.5,-142.5,137.5,,105,Masters 4,SBD,Single-ply,M
DQ,Mihkel Laurits,1944,Estonia,97.71,-160,-160,-160,,-125,125,135,135,175,185,-192.5,185,,105,Masters 4,SBD,Single-ply,M
1,Hans Ring,1945,Sweden,116.27,190,210,220,220,160,170,-175,170,200,220,235,235,625,120,Masters 4,SBD,Single-ply,M
2,Michael Nichols,1945,USA,110.95,145,157.5,170,170,-117.5,117.5,122.5,122.5,182.5,197.5,-205,197.5,490,120,Masters 4,SBD,Single-ply,M
1,Raimo Sandelin,1940,Finland,120.12,100,,,100,95,-132.5,-132.5,95,130,150,,150,345,120+,Masters 4,SBD,Single-ply,M
1,Trish Muldrock,1954,New Zealand,46.34,92.5,-97.5,97.5,97.5,62.5,65,67.5,67.5,115,127.5,136.5,136.5,301.5,47,Masters 3,SBD,Single-ply,F
2,Marina Cornwall,1954,Britain,44.54,72.5,77.5,85,85,42.5,47.5,-50,47.5,105,115,122.5,122.5,255,47,Masters 3,SBD,Single-ply,F
3,Susan Elwyn,1947,USA,45.75,65,85,-95,85,30,37.5,42.5,42.5,95,117.5,-130,117.5,245,47,Masters 3,SBD,Single-ply,F
1,Vuokko Viitasaari,1954,Finland,51.71,90,100,110,110,65,70,72.5,72.5,130,140,150.5,150.5,333,52,Masters 3,SBD,Single-ply,F
2,Pirjo Kemppainen,1951,Finland,48.28,-70,-75,75,75,-30,30,35,35,95,100,-107.5,100,210,52,Masters 3,SBD,Single-ply,F
3,Denise Johnson,1947,USA,51.71,50,-55,55,55,35,-37.5,37.5,37.5,-82.5,-82.5,82.5,82.5,175,52,Masters 3,SBD,Single-ply,F
1,Edith Guennec,1956,France,55.45,95,100,105,105,62.5,67.5,-70,67.5,157.5,165,-167.5,165,337.5,57,Masters 3,SBD,Single-ply,F
2,Deborah McGovern,1955,USA,54.45,92.5,102.5,-110,102.5,-52.5,52.5,57.5,57.5,125,132.5,-135,132.5,292.5,57,Masters 3,SBD,Single-ply,F
1,Britten Fernström,1949,Sweden,58.07,-90,95,-100,95,60,65,67.5,67.5,-120,120,125,125,287.5,63,Masters 3,SBD,Single-ply,F
2,Lucica Olah,1955,Romania,61.69,100,107.5,-110,107.5,50,52.5,55,55,115,125,-127.5,125,287.5,63,Masters 3,SBD,Single-ply,F
3,Carol Brady,1950,Canada,61.47,102.5,-110,-110,102.5,-65,65,-70,65,102.5,110,115,115,282.5,63,Masters 3,SBD,Single-ply,F
1,Hana Takáčová,1954,Czechia,76.71,160,-170,-170,160,110,120,-127.5,120,135,150,-155,150,430,84,Masters 3,SBD,Single-ply,F
1,Susan Hollands,1951,Britain,85.25,160,-167.5,-167.5,160,40,,,40,65,,,65,265,84+,Masters 3,SBD,Single-ply,F
1,Eila Kumpuniemi,1942,Finland,46.31,75,-85,85,85,40,45,-50,45,95,105,111,111,241,47,Masters 4,SBD,Single-ply,F
1,Maryse Malicot,1946,France,50.6,-92.5,92.5,-99,92.5,42.5,45,47.5,47.5,90,97.5,100,100,240,52,Masters 4,SBD,Single-ply,F
2,Bebe Burns,1942,USA,51.22,62.5,-70,-70,62.5,42.5,50,-52.5,50,70,80,87.5,87.5,200,52,Masters 4,SBD,Single-ply,F
1,Tatyana Fomina,1946,Russia,61.72,110,115,-120,115,47.5,50,52.5,52.5,120,130.5,132.5,132.5,300,63,Masters 4,SBD,Single-ply,F
