Place,Name,Country,BirthYear,BodyweightKg,WeightClassKg,Division,Squat1Kg,Squat2Kg,Squat3Kg,Best3SquatKg,Bench1Kg,Bench2Kg,Bench3Kg,Best3BenchKg,Deadlift1Kg,Deadlift2Kg,Deadlift3Kg,Best3DeadliftKg,TotalKg,Sex,Event,Equipment
1,Romel Gacutara,PHI,1996,51.5,53,Sub-Juniors,110,122.5,-132.5,122.5,55,65,-70,65,145,165,175,175,362.5,M,SBD,Single-ply
1,Shih-Hsin Yang,TPE,1996,57.7,59,Sub-Juniors,205,-210,-210,205,110,117.5,-125,117.5,195,212.5,-227.5,212.5,535,M,SBD,Single-ply
2,Awlad Thani Al Khattab,OMA,1998,58,59,Sub-Juniors,150,160,-170,160,70,80,-82.5,80,150,165,177.5,177.5,417.5,M,SBD,Single-ply
3,John Padullo,PHI,1999,58.22,59,Sub-Juniors,120,130,-132.5,130,50,-55,55,55,130,140,-150,140,325,M,SBD,Single-ply
4,Du Villafuerte,PHI,1996,56.22,59,Sub-Juniors,100,-102.5,102.5,102.5,62.5,67.5,70,70,120,130,-140,130,302.5,M,SBD,Single-ply
1,Chung-Chih Cheng,TPE,1996,65.05,66,Sub-Juniors,250,260,-270,260,130,140,,140,250,270,290,290,690,M,SBD,Single-ply
2,John Rick Marteja,PHI,1996,62.47,66,Sub-Juniors,140,150,-160,150,75,80,-85,80,150,155,,155,385,M,SBD,Single-ply
1,John Empig,PHI,1996,70.78,74,Sub-Juniors,110,120,130,130,65,72.5,80,80,130,150,170,170,380,M,SBD,Single-ply
1,Nabras Awlad Thani,OMA,1998,78.72,83,Sub-Juniors,155,165,190,190,70,77.5,82.5,82.5,155,165,172.5,172.5,445,M,SBD,Single-ply
2,Jan Calma,PHI,1996,76.28,83,Sub-Juniors,130,145,155,155,70,75,80,80,140,155,-170,155,390,M,SBD,Single-ply
DQ,Cyrus Cardano,PHI,1996,90.73,93,Sub-Juniors,-160,-170,-170,,80,-85,85,85,130,140,160,160,,M,SBD,Single-ply
1,Khusniddin Buriev,UZB,1994,52.9,53,Juniors,150,160,170,170,100,110,120,120,150,160,170,170,460,M,SBD,Single-ply
2,Mark Dee,PHI,1993,51.12,53,Juniors,115,120,-127.5,120,65,67.5,-70,67.5,112.5,127.5,132.5,132.5,320,M,SBD,Single-ply
G,Sammy Bondad,PHI,1994,53,53,Juniors,92.5,-100,100,100,60,65,-70,65,110,-125,125,125,290,M,SBD,Single-ply
1,Regie Ramirez,PHI,1993,57.68,59,Juniors,210,225,,225,117.5,130,-132.5,130,235,250,-263,250,605,M,SBD,Single-ply
2,Abdulmajeed Al Battashi,OMA,1991,58.12,59,Juniors,155,160,175,175,95,107.5,112.5,112.5,150,165,177.5,177.5,465,M,SBD,Single-ply
3,Ryuta Terakado,JPN,1993,58.7,59,Juniors,150,-160,160,160,120,-130,-132.5,120,160,167.5,170,170,450,M,SBD,Single-ply
1,Viki Ariyanto,INA,1994,65.5,66,Juniors,270,-295,-295,270,170,-185,185,185,-260,260,-288,260,715,M,SBD,Single-ply
2,Sihura Janwar,INA,1991,64.15,66,Juniors,230,255,-272.5,255,130,150,-162.5,150,220,245,-262.5,245,650,M,SBD,Single-ply
3,Yahya Al Kiyumi,OMA,1991,65.34,66,Juniors,210,232.5,-257.5,232.5,160,-180,-180,160,210,240,-265,240,632.5,M,SBD,Single-ply
1,Carlos Tan,PHI,1991,72.03,74,Juniors,185,195,205,205,92.5,100,-105,100,235,245,257.5,257.5,562.5,M,SBD,Single-ply
2,Hao-En Pan,TPE,1995,67.6,74,Juniors,190,202.5,207.5,207.5,115,120,130,130,200,210,222.5,222.5,560,M,SBD,Single-ply
3,Isiah de Villa,PHI,1992,69.06,74,Juniors,190,202.5,207.5,207.5,120,130,135,135,190,217.5,-230,217.5,560,M,SBD,Single-ply
4,Omar Al Hasani,OMA,1995,71.89,74,Juniors,175,-190,-202.5,175,92.5,-102.5,-102.5,92.5,-192.5,195,-202.5,195,462.5,M,SBD,Single-ply
DQ,Duvjid Boldbaatar,MGL,1994,73.3,74,Juniors,250,260,-267.5,260,130,-140,140,140,200,220,230,230,,M,SBD,Single-ply
DQ,Sugar Otgondulam,MGL,1993,72.6,74,Juniors,-220,-230,-230,,-160,160,-170,160,180,-195,-195,180,,M,SBD,Single-ply
1,You-Si Jang,TPE,1994,82.26,83,Juniors,265,280,-287.5,280,165,175,177.5,177.5,290,315,-325.5,315,772.5,M,SBD,Single-ply
2,Gabriel Enverga,PHI,1991,76.6,83,Juniors,180,190,205,205,122.5,-132.5,132.5,132.5,210,230,-245,230,567.5,M,SBD,Single-ply
1,Chin-Chia Yang,TPE,1991,88.84,93,Juniors,280,-300,310,310,-195,195,-205,195,270,280,-300,280,785,M,SBD,Single-ply
2,Salim Aulad Thani,OMA,1992,91.57,93,Juniors,285,302.5,312.5,312.5,150,160,-170,160,-272.5,272.5,-297.5,272.5,745,M,SBD,Single-ply
1,Sen Yang,TPE,1994,102.38,105,Juniors,330,350,375,375,200,230,240,240,280,-300,-300,280,895,M,SBD,Single-ply
2,Aldrin Caparas,PHI,1993,100.52,105,Juniors,255,265,275,275,195,205,-220,205,200,220,-240,220,700,M,SBD,Single-ply
G,Nyamdorj Amarsaikhan,MGL,1992,100.58,105,Juniors,-260,260,-280,260,185,-192.5,192.5,192.5,230,245,-255,245,697.5,M,SBD,Single-ply
1,Brandon Cueto,PHI,1991,105.15,120,Juniors,250,-270,275,275,170,182.5,-185,182.5,210,235,-240,235,692.5,M,SBD,Single-ply
2,Mukhammad Yusupov,UZB,1993,105.18,120,Juniors,200,210,222.5,222.5,120,140,145,145,200,222.5,237.5,237.5,605,M,SBD,Single-ply
3,Qais Al Hasni,OMA,1992,108.03,120,Juniors,205,-212.5,-212.5,205,105,-115,120,120,170,190,200,200,525,M,SBD,Single-ply
DQ,Raymond Debuque,PHI,1993,120.27,120+,Juniors,200,-210,-220,200,200,212.5,215,215,270,290,-300,290,,M,SBD,Single-ply
1,Larry Apolinar,PHI,1973,65.62,66,Masters 1,130,145,160,160,60,75,87.5,87.5,160,175,190,190,437.5,M,SBD,Single-ply
DQ,Marlon Herrera,PHI,1972,73.56,74,Masters 1,145,165,-180,165,95,-125,-125,95,145,-165,,145,,M,SBD,Single-ply
1,Mitsuhisa Ogawa,JPN,1971,89.54,93,Masters 1,220,240,-255,240,175,185,-192.5,185,215,225,230,230,655,M,SBD,Single-ply
2,Wai Shun Woo,HKG,1973,90.89,93,Masters 1,240,-245,245,245,160,177.5,-187.5,177.5,200,222.5,-235,222.5,645,M,SBD,Single-ply
1,Mirgofur Khaydarov,UZB,1973,111.06,120,Masters 1,180,182.5,-200,182.5,150,170,,170,190,-210,-210,190,542.5,M,SBD,Single-ply
1,Omar Jumaa Al Dhareri,UAE,1971,192.6,120+,Masters 1,140,,,140,140,,,140,120,,,120,400,M,SBD,Single-ply
G,Molomjamts Pagvaasuren,MGL,1967,129.4,120+,Masters 1,200,220,-250,220,200,215,-230,215,170,-190,-200,170,605,M,SBD,Single-ply
1,Hironori Niwa,JPN,1961,65.48,66,Masters 2,180,190,200,200,120,125,-130,125,200,-220,-220,200,525,M,SBD,Single-ply
2,Hideaki Nakamura,JPN,1960,65.74,66,Masters 2,145,155,165,165,110,-130,-132.5,110,150,-160,-165,150,425,M,SBD,Single-ply
3,Tai-Shan Yang,TPE,1962,64.84,66,Masters 2,60,70,80,80,80,-130.5,-130.5,80,90,100,115,115,275,M,SBD,Single-ply
DQ,Eric Paglinawan,PHI,1964,73.37,74,Masters 2,170,-200,205,205,117.5,-130,-130,117.5,180,200,205,205,,M,SBD,Single-ply
1,Makoto Yamaguchi,JPN,1963,82.09,83,Masters 2,-250,250,-270.5,250,150,166,-170,166,220,246.5,-257.5,246.5,662.5,M,SBD,Single-ply
2,Renato Dio,PHI,1956,80.7,83,Masters 2,215,230,240,240,110,135,145,145,200,225,-230,225,610,M,SBD,Single-ply
3,Kuo-Sheng Lin,TPE,1960,81.57,83,Masters 2,180,200,-230,200,140,150,-166.5,150,180,200,-232.5,200,550,M,SBD,Single-ply
1,Jang Ju Ick,KOR,1963,98.3,105,Masters 2,240,260,272.5,272.5,155,165,175,175,235,250,-260,250,697.5,M,SBD,Single-ply
1,Edmundo Jose Cardano,PHI,1961,105.3,120,Masters 2,200,220,230,230,140,150,155,155,200,220,-240,220,605,M,SBD,Single-ply
1,Kung-Him Wong,HKG,1947,52.49,59,Masters 2,115,125,130,130,90,95,97.5,97.5,140,145,-150,145,372.5,M,SBD,Single-ply
1,Toshio Kitano,JPN,1946,82.71,83,Masters 2,205,-230,240,240,100,150,-165,150,215,-235,-247.5,215,605,M,SBD,Single-ply
1,Valiant Chiu,HKG,1954,84.14,93,Masters 2,100,105,110,110,110,112.5,117.5,117.5,145,150,155,155,382.5,M,SBD,Single-ply
1,Kim-Won Pok,HKG,1940,51.07,59,Masters 4,90,100,-110,100,67.5,70,-75,70,120,130,135,135,305,M,SBD,Single-ply
1,Mitsuru Osawa,JPN,1941,72.73,74,Masters 4,-170,170,-180,170,-112.5,112.5,-115,112.5,160,175,185,185,467.5,M,SBD,Single-ply
1,Tetsuya Kinoshita,JPN,1942,74.99,83,Masters 4,145,147.5,160,160,80,90,95.5,95.5,150,165.5,172.5,172.5,428,M,SBD,Single-ply
1,Awang Latiful Habir,INA,1987,58.74,59,Open,230,-245,-255,230,160,170,180,180,240,255,265,265,675,M,SBD,Single-ply
2,Chun-Lin Wang,TPE,1990,58.7,59,Open,240,250,255,255,140,150,-160,150,230,250,-270,250,655,M,SBD,Single-ply
3,Masakimi Yachi,JPN,1979,58.94,59,Open,180,-187.5,-187.5,180,110,120,-127.5,120,180,190,192.5,192.5,492.5,M,SBD,Single-ply
4,Lee Yao-Ting,TPE,1981,57.88,59,Open,160,165,-170,165,152.5,165,-170,165,150,160,-172.5,160,490,M,SBD,Single-ply
DQ,Isaac Cortez,PHI,1988,58,59,Open,120,135,142.5,142.5,-115,120,-132.5,120,-180,-180,-180,,,M,SBD,Single-ply
1,Addut,INA,1981,65.5,66,Open,200,220,240,240,120,140,155,155,190,220,-235,220,615,M,SBD,Single-ply
2,Rod Blay,PHI,,65.28,66,Open,165,-175,-175,165,110,-120,120,120,180,195,-200,195,480,M,SBD,Single-ply
DQ,Tsung-Ting Hsieh,TPE,1982,63.83,66,Open,-255,-255,-255,,195,-205,205,205,120,125,130,130,,M,SBD,Single-ply
G,Dalida Rommel,PHI,1980,63.2,66,Open,-165,-170,170,170,-100,100,-120,100,160,200,215,215,485,M,SBD,Single-ply
1,Lung-Hsin Huang,TPE,1981,73.58,74,Open,275,-290,290,290,205,212.5,215,215,290,310,317.5,317.5,822.5,M,SBD,Single-ply
2,Doni Meiyanto,INA,1989,71.43,74,Open,280,300,310,310,150,165,-175,165,290,305,315,315,790,M,SBD,Single-ply
3,Nilo Dela Cena,PHI,1976,73.4,74,Open,-220,220,-240,220,-165,-170,170,170,230,-240,240,240,630,M,SBD,Single-ply
4,Cheng-Shiu Wu,TPE,1987,70.7,74,Open,210,212.5,225,225,130,140,150,150,210,220,-230,220,595,M,SBD,Single-ply
G,Gansukh Batsukh,MGL,1988,73.7,74,Open,-265,265,-270,265,-165,165,-172.5,165,210,225,232.5,232.5,662.5,M,SBD,Single-ply
1,Mohammed Auld Thani,OMA,1992,82.53,83,Open,255,265,275,275,150,165,172.5,172.5,235,250,262.5,262.5,710,M,SBD,Single-ply
2,Yuriy Antonov,UZB,1991,79.12,83,Open,220,240,-255,240,175,180,187.5,187.5,230,245,-260,245,672.5,M,SBD,Single-ply
3,Wei-Chun Wu,TPE,1990,81.83,83,Open,230,-240,240,240,170,-180,180,180,220,230,240,240,660,M,SBD,Single-ply
4,Dionisio Inobaya,PHI,1975,76.58,83,Open,210,212.5,230,230,125,130,135,135,225,235,-250,235,600,M,SBD,Single-ply
5,Neal Linoy,PHI,1982,77.69,83,Open,200,-230,-230,200,130,150,-165,150,200,-230,-230,200,550,M,SBD,Single-ply
6,Kang Duck Yun,KOR,1987,76.8,83,Open,165,175,185,185,100,110,-125,110,160,180,-200,180,475,M,SBD,Single-ply
G,Galsaokhan Myagmarsuren,MGL,1988,82.22,83,Open,290,300,310,310,170,180,185,185,265,-272.5,272.5,272.5,767.5,M,SBD,Single-ply
G,Ariunbaater Sharavdorj,MGL,1982,81.89,83,Open,285,295,-302.5,295,180,-187.5,187.5,187.5,260,270,-277.5,270,752.5,M,SBD,Single-ply
1,Masahito Kitsui,HKG,,91.91,93,Open,200,240,-242.5,240,230,-246.5,-246.5,230,-190,190,232.5,232.5,702.5,M,SBD,Single-ply
2,Lee Dae Gil,KOR,1983,92.17,93,Open,210,230,-245,230,150,170,-185,170,180,205,-212.5,205,605,M,SBD,Single-ply
3,Linus Tiu,PHI,1977,90.79,93,Open,-240,-240,240,240,130,135,-145,135,210,225,-230,225,600,M,SBD,Single-ply
4,Sun Byung Chun,KOR,1985,92.32,93,Open,170,185,187.5,187.5,100,105,110,110,185,200,210,210,507.5,M,SBD,Single-ply
G,Altanbagana Sharardorj,MGL,1990,90.91,93,Open,290,-310,-315,290,-190,190,200,200,240,-250,,240,730,M,SBD,Single-ply
1,Patrick John Rivera,PHI,1985,103.15,105,Open,270,-275,,270,-175,175,-180,175,260,270,-280,270,715,M,SBD,Single-ply
2,Mohammed Alkhanbouli,UAE,1980,103.36,105,Open,-180,180,-182.5,180,200,210,215,215,260,285,-302.5,285,680,M,SBD,Single-ply
3,Kahramon Shukurov,UZB,1980,93.5,105,Open,50,,,50,50,,,50,-50,50,,50,150,M,SBD,Single-ply
G,Enkhbold Khuder,MGL,1985,103.6,105,Open,335,-350,-350,335,-250,250,-260,250,250,270,282.5,282.5,867.5,M,SBD,Single-ply
G,Batzul Shagdarsuren,MGL,1982,104.68,105,Open,300,310,,310,200,210,,210,280,-302.5,-302.5,280,800,M,SBD,Single-ply
G,Pagvaasuren Otgonmunkh,MGL,,103.4,105,Open,200,230,-260,230,200,-210,,200,200,230,250,250,680,M,SBD,Single-ply
1,Ardani Dodi,INA,1984,118.2,120,Open,300,340,360,360,160,200,-240,200,-275,275,285,285,845,M,SBD,Single-ply
2,Issa Al Hasni,OMA,1984,105.39,120,Open,235,255,270,270,175,185,200,200,240,-260,,240,710,M,SBD,Single-ply
G,Gantulga Batsukh,MGL,1981,116.83,120,Open,300,-315,-315,300,200,210,-217.5,210,250,-260,-260,250,760,M,SBD,Single-ply
1,Yanto Dodi,INA,1985,124.24,120+,Open,300,-330,330,330,180,200,-220,200,250,260,272.5,272.5,802.5,M,SBD,Single-ply
2,Aidh Ali Mahfoodh Al Mandhari,OMA,1985,127.12,120+,Open,-305,305,315,315,175,185,-200,185,245,-257.5,-257.5,245,745,M,SBD,Single-ply
3,Jim Buen,PHI,1980,120.6,120+,Open,250,270,280,280,175,185,190,190,242.5,255,-275,255,725,M,SBD,Single-ply
G,Altangerel Bujinlkham,MGL,1976,126.23,120+,Open,340,360,-380,360,270,290,-305,290,-240,-240,240,240,890,M,SBD,Single-ply
1,Darryl Ann Ancuelo,PHI,1997,42.72,43,Sub-Juniors,70,75,80,80,30,35,-40,35,80,90,-100,90,205,F,SBD,Single-ply
1,Joan Masangkay,PHI,1998,43.24,47,Sub-Juniors,80,90,-92.5,90,37.5,40,-42.5,40,80,85,92.5,92.5,222.5,F,SBD,Single-ply
1,Hui-Chuan Huang,TPE,1996,51.49,52,Sub-Juniors,140,147.5,150,150,75,82.5,87.5,87.5,145,162.5,-165,162.5,400,F,SBD,Single-ply
1,Margarette Angulo,PHI,1996,70.44,72,Sub-Juniors,85,95,-110,95,45,-55,-55,45,110,120,125,125,265,F,SBD,Single-ply
1,Yi-Chiao Chang,TPE,,81.25,84,Sub-Juniors,-140,140,150,150,70,75,80,80,130,140,-150,140,370,F,SBD,Single-ply
1,Yu-Mei Chen,TPE,,91.08,84+,Sub-Juniors,100,-110,-110,100,65,70,-80,70,100,115,125,125,295,F,SBD,Single-ply
1,Mia Marie Tapanan,PHI,1995,41.46,43,Juniors,60,65,70,70,30,32.5,-35,32.5,70,75,-77.5,75,177.5,F,SBD,Single-ply
2,Jena Mae Neri,PHI,1995,41.75,43,Juniors,62.5,-67.5,-67.5,62.5,27.5,30,-35,30,72.5,77.5,80,80,172.5,F,SBD,Single-ply
1,Popoy Widari,INA,1991,46.7,47,Juniors,120,140,-152.5,140,80,90,-100,90,130,150,160,160,390,F,SBD,Single-ply
1,Yen-Tzu Huang,TPE,1992,51.34,52,Juniors,-145,-155,155,155,85,95,105,105,-155,160,-167.5,160,420,F,SBD,Single-ply
2,Jasmine Martin,PHI,1993,48.79,52,Juniors,120,125,-132.5,125,60,65,-70,65,150,160,-170,160,350,F,SBD,Single-ply
1,Margareth Tambunan,INA,1993,54.76,57,Juniors,130,150,-170,150,70,90,100,100,150,170,-197.5,170,420,F,SBD,Single-ply
2,Sultanie Useinova,UZB,1993,55.88,57,Juniors,120,130,140,140,75,80,82.5,82.5,-130,140,150,150,372.5,F,SBD,Single-ply
3,Alysa Jane Gutirrez,PHI,1994,56.04,57,Juniors,110,120,127.5,127.5,60,65,70,70,150,-160,160,160,357.5,F,SBD,Single-ply
1,Sirochetdinova,UZB,1993,58.2,63,Juniors,130,140,-150,140,95,100,105,105,120,140,,140,385,F,SBD,Single-ply
1,Janeva Duran,PHI,1995,62.18,63,Juniors,100,-115,-115,100,50,57.5,62.5,62.5,105,115,127.5,127.5,290,F,SBD,Single-ply
1,Mia Del Mundo,PHI,1993,71.46,72,Juniors,140,-150,-150,140,-50,50,57.5,57.5,150,160,167.5,167.5,365,F,SBD,Single-ply
1,Sri Rahayu,INA,1992,82.61,84,Juniors,-230,230,240,240,120,130,142.5,142.5,160,190,205,205,587.5,F,SBD,Single-ply
1,Anastasiya Kudryaceva,UZB,1994,85.06,84+,Juniors,100,-110,120,120,40,50,55,55,100,105,110,110,285,F,SBD,Single-ply
1,Victorina Calma,PHI,1974,51.17,52,Masters 1,-100,-100,100,100,65,70,77.5,77.5,120,130,-140,130,307.5,F,SBD,Single-ply
1,Tamami Yamada,JPN,1964,55.87,57,Masters 2,-105,105,-115,105,60,-65,-65,60,120,-125,-125,120,285,F,SBD,Single-ply
1,Komalasari Eka,INA,1990,42.97,47,Open,140,-150,-150,140,65,-75,82.5,82.5,150,165,-175,165,387.5,F,SBD,Single-ply
2,Letecia Mangcao,PHI,1982,45.91,47,Open,-125,125,-135,125,55,60,-67.5,60,135,145,-155,145,330,F,SBD,Single-ply
1,Yi-Ju Chou,TPE,1980,51.37,52,Open,150,160,-167.5,160,70,77.5,80,80,-165,180,182.5,182.5,422.5,F,SBD,Single-ply
2,Leslie Evangelista,PHI,1981,51.17,52,Open,132.5,145,-152.5,145,72.5,77.5,80,80,155,-165,-165,155,380,F,SBD,Single-ply
1,Anita Koykka,PHI,1960,55.46,57,Open,-140,-140,140,140,75,-82.5,82.5,82.5,160,177.5,182.5,182.5,405,F,SBD,Single-ply
1,Hui-Chun Wu,TPE,1986,58.58,63,Open,185,-190,190,190,115,-125,125,125,185,200,205,205,520,F,SBD,Single-ply
2,Betina Bordes,PHI,1990,60.95,63,Open,140,150,-157.5,150,95,100,-105,100,160,170,-180,170,420,F,SBD,Single-ply
1,Rahayu Mela Eka,INA,1990,69.89,72,Open,170,190,-210,190,100,110,120,120,175,190,-205,190,500,F,SBD,Single-ply
1,Raya Maala,PHI,1983,73.6,84,Open,140,150,-160,150,65,70,75,75,125,-135,-135,125,350,F,SBD,Single-ply
DQ,Annette Ferrer,PHI,1983,77.38,84,Open,-135,-135,-150,,55,60,-62.5,60,110,125,140,140,,F,SBD,Single-ply
1,Jie-Wen Chen,TPE,1990,126.5,84+,Open,-235,235,245,245,-135,-135,135,135,170,180,192.5,192.5,572.5,F,SBD,Single-ply
DQ,Maisuri Rini,INA,1985,103.54,84+,Open,-230,-230,-230,,110,130,-150,130,150,180,-192.5,180,,F,SBD,Single-ply
