Place,Name,BirthYear,Country,BodyweightKg,Squat1Kg,Squat2Kg,Squat3Kg,Best3SquatKg,Bench1Kg,Bench2Kg,Bench3Kg,Best3BenchKg,Deadlift1Kg,Deadlift2Kg,Deadlift3Kg,Best3DeadliftKg,TotalKg,WeightClassKg,Division,Event,Sex,Equipment
1,Antonio Taguibao,1958,Philippines,51.65,152.5,162.5,,162.5,72.5,82.5,-90,82.5,172.5,180,,180.0,425,52,Masters 1,SBD,M,Single-ply
2,Ram Singh Sat,1961,India,50.9,135,145,-155,145.0,55,65,70,70.0,145,155,162.5,162.5,377.5,52,Masters 1,SBD,M,Single-ply
1,Karl Christians,1963,South Africa,55.85,150,-160,165,165.0,80,90,97.5,97.5,180,195,-202.5,195.0,457.5,56,Masters 1,SBD,M,Single-ply
2,Purna Chandra Bidika,1957,India,54.1,130,140,-150,140.0,50,65,-70,65.0,140,150,155,155.0,360,56,Masters 1,SBD,M,Single-ply
1,Hitoshi Shibata,1959,Japan,59.2,175,185,-187.5,185.0,-135,135,-140,135.0,190,-200,-200,190.0,510,60,Masters 1,SBD,M,Single-ply
2,Graham Dowers,1964,Britain,59.5,170,180,190,190.0,110,115,120,120.0,175,185,192.5,192.5,502.5,60,Masters 1,SBD,M,Single-ply
3,Masahiro Irie,1964,Japan,59.4,-170,170,177.5,177.5,120,130,-137.5,130.0,175,185,-195,185.0,492.5,60,Masters 1,SBD,M,Single-ply
4,Nigel Patrick,1965,Britain,59.8,170,182.5,187.5,187.5,90,97.5,102.5,102.5,180,190,-195,190.0,480,60,Masters 1,SBD,M,Single-ply
5,Kevin Jones,1962,USA,59.55,170,182.5,187.5,187.5,105,-110,110,110.0,165,175,-182.5,175.0,472.5,60,Masters 1,SBD,M,Single-ply
6,John Bissen,1957,USA,59.75,170,-180,-180,170.0,82.5,90,95,95.0,-170,170,187.5,187.5,452.5,60,Masters 1,SBD,M,Single-ply
1,Gregory Simmons,1965,USA,67.35,232.5,245,250,250.0,150,160,-165,160.0,230,237.5,245,245.0,655,67.5,Masters 1,SBD,M,Single-ply
2,Adriano DaCosta,1963,France,66.95,225,237.5,-247.5,237.5,157.5,165,172.5,172.5,217.5,230,-237.5,230.0,640,67.5,Masters 1,SBD,M,Single-ply
3,Jan Roytvand,1963,Norway,66.85,225,-240,250,250.0,125,135,-145,135.0,210,220,-230,220.0,605,67.5,Masters 1,SBD,M,Single-ply
4,Karel Ruso,1965,Czechia,67,240,250,-255,250.0,110,-115,-115,110.0,-220,220,237.5,237.5,597.5,67.5,Masters 1,SBD,M,Single-ply
5,Thomas Vareed,1961,India,66.85,200,-225,-225,200.0,110,-122.5,-130,110.0,200,215,230,230.0,540,67.5,Masters 1,SBD,M,Single-ply
6,Ephraim Khandinise,1961,South Africa,64,140,155,170,170.0,67.5,-75,75,75.0,170,-180,180,180.0,425,67.5,Masters 1,SBD,M,Single-ply
1,Pekka Anttila,1965,Finland,74.75,-270,270,283.0,283.0,150,160,-165,160.0,230,240,260,260.0,702.5,75,Masters 1,SBD,M,Single-ply
2,Mani Khosravi,1960,Iran,73.95,235,250,255,255.0,-160,167.5,175,175.0,250,260,-270,260.0,690,75,Masters 1,SBD,M,Single-ply
3,Walter Schmidt,1958,South Africa,74.6,230,240,245,245.0,155,160,162.5,162.5,260,272.5,277.5,277.5,685,75,Masters 1,SBD,M,Single-ply
4,Joseph Braca,1962,USA,74.9,215,237.5,-245,237.5,-155,155,-160,155.0,260,-277.5,-277.5,260.0,652.5,75,Masters 1,SBD,M,Single-ply
5,Ari Oksanen,1964,Finland,74.75,220,230,240,240.0,160,165,-170,165.0,245,-255,-262.5,245.0,650,75,Masters 1,SBD,M,Single-ply
6,Hiroshi Konita,1957,Japan,73.55,197.5,202.5,207.5,207.5,130,135,140,140.0,245,260,-265,260.0,607.5,75,Masters 1,SBD,M,Single-ply
7,Akihiro Nakane,1956,Japan,73.6,220,230,240,240.0,-155,-155,155,155.0,200,210,-220,210.0,605,75,Masters 1,SBD,M,Single-ply
8,Sergey Rykov,1958,Russia,75,225,245,252.5,252.5,90,100,-110,100.0,230,-252.5,-252.5,230.0,582.5,75,Masters 1,SBD,M,Single-ply
9,Walter Urban,1958,Canada,74.4,185,200,-210,200.0,122.5,132.5,137.5,137.5,212.5,-230,-230,212.5,550,75,Masters 1,SBD,M,Single-ply
10,Patrick Mathias,1957,France,73.8,175,182.5,-190,182.5,130,137.5,142.5,142.5,190,205,-212.5,205.0,530,75,Masters 1,SBD,M,Single-ply
1,Ronald Garofalo,1961,USA,81,262.5,282.5,290,290.0,172.5,182.5,187.5,187.5,272.5,295,300,300.0,777.5,82.5,Masters 1,SBD,M,Single-ply
2,Jeff Becker,1963,Canada,82.1,290,-297.5,297.5,297.5,175,182.5,185,185.0,282.5,-295,-295,282.5,765,82.5,Masters 1,SBD,M,Single-ply
3,TS Adewale,1965,Britain,81.65,250,-267.5,-267.5,250.0,155,-162.5,-162.5,155.0,280,-290,-302.5,280.0,685,82.5,Masters 1,SBD,M,Single-ply
4,Dominique Carlot,1960,France,81,225,235,-242.5,235.0,147.5,155,-160,155.0,270,-282.5,-282.5,270.0,660,82.5,Masters 1,SBD,M,Single-ply
5,Makoto Yamaguchi,1963,Japan,80.55,240,250,-260,250.0,150,-160,-160,150.0,230,240,242.5,242.5,642.5,82.5,Masters 1,SBD,M,Single-ply
6,Erik Rasmussen,1962,Denmark,82.15,225,-252.5,-255,225.0,182.5,-185,190,190.0,200,225,-247.5,225.0,640,82.5,Masters 1,SBD,M,Single-ply
7,Seiji Harada,1961,Japan,79.04,210,215,220,220.0,170,-175,175,175.0,230,240,-245,240.0,635,82.5,Masters 1,SBD,M,Single-ply
8,Alain Esposito,1960,France,81.6,220,230,-240,230.0,-150,150,157.5,157.5,230,245,-255,245.0,632.5,82.5,Masters 1,SBD,M,Single-ply
9,Stephen King,1962,New Zealand,80.5,210,230,245,245.0,120,127.5,132.5,132.5,200,220,232.5,232.5,610,82.5,Masters 1,SBD,M,Single-ply
10,Louis Jacobs,1958,South Africa,80.75,230,242.5,-252.5,242.5,140,147.5,-160,147.5,210,220,-230,220.0,610,82.5,Masters 1,SBD,M,Single-ply
1,Jón Gunnarsson,1959,Iceland,89.45,270,290,302.5,302.5,180,190,200,200.0,260,275,295,295.0,797.5,90,Masters 1,SBD,M,Single-ply
2,Gregory Jones,1961,USA,89.55,282.5,297.5,305,305.0,190,-200,200,200.0,267.5,277.5,292.5,292.5,797.5,90,Masters 1,SBD,M,Single-ply
3,Vincent Encinas,1964,France,89.45,260,270,280,280.0,210,217.5,-220,217.5,250,260,265,265.0,762.5,90,Masters 1,SBD,M,Single-ply
4,Eric Mauchosse,1958,France,88.85,280,-290,-290,280.0,185,190,195,195.0,260,275,-287.5,275.0,750,90,Masters 1,SBD,M,Single-ply
5,Noel Frank,1957,New Zealand,89.05,240,255,265,265.0,195,210,217.5,217.5,240,260,-270,260.0,742.5,90,Masters 1,SBD,M,Single-ply
6,Jerry Marentette,1956,Canada,87.3,242.5,260,267.5,267.5,172.5,182.5,185,185.0,255,270,-277.5,270.0,722.5,90,Masters 1,SBD,M,Single-ply
7,Jochen Stöver,1965,Germany,88.55,205,-220,220,220.0,155,160,165,165.0,250,270,280,280.0,665,90,Masters 1,SBD,M,Single-ply
8,Derek Allen,1958,South Africa,89.45,220,235,245,245.0,170,180,-190,180.0,215,225,-232.5,225.0,650,90,Masters 1,SBD,M,Single-ply
9,Antti Timonen,1961,Finland,88.8,200,215,225,225.0,155,160,165,165.0,220,230,240,240.0,630,90,Masters 1,SBD,M,Single-ply
10,Donald Julius,1963,South Africa,89.05,210,217.5,225,225.0,-145,145,152.5,152.5,230,240,-252.5,240.0,617.5,90,Masters 1,SBD,M,Single-ply
1,Scott Roberts,1958,USA,99.35,292.5,310,317.5,317.5,-187.5,187.5,195,195.0,277.5,290,-295,290.0,802.5,100,Masters 1,SBD,M,Single-ply
2,François Kalic,1965,France,98.3,285,295,-302.5,295.0,185,195,200,200.0,285,295,-307.5,295.0,790,100,Masters 1,SBD,M,Single-ply
3,Edward Torres Peter,1965,Philippines,97.35,285,295,-310,295.0,170,177.5,-180,177.5,290,307.5,-312.5,307.5,780,100,Masters 1,SBD,M,Single-ply
4,Harri Hagfors,1961,Finland,98.2,275,-287.5,-292.5,275.0,192.5,197.5,202.5,202.5,292.5,302.5,-312.5,302.5,780,100,Masters 1,SBD,M,Single-ply
5,John Hall,1961,South Africa,98.85,-245,245,265,265.0,180,190,-200,190.0,260,275,282.5,282.5,737.5,100,Masters 1,SBD,M,Single-ply
6,Ian Kinghorn,1959,Britain,99.25,235,245,-252.5,245.0,-225,-230,230,230.0,230,237.5,-247.5,237.5,712.5,100,Masters 1,SBD,M,Single-ply
7,Ted Anderson,1961,New Zealand,99.55,235,250,-260,250.0,155,167.5,172.5,172.5,220,230,237.5,237.5,660,100,Masters 1,SBD,M,Single-ply
8,Sarveswara Rao,1957,India,92.85,215,230,240,240.0,130,145,155,155.0,215,230,240,240.0,635,100,Masters 1,SBD,M,Single-ply
9,Satya Prakash,1958,India,92.8,-170,170,,170.0,100,-102.5,,100.0,170,,,170.0,440,100,Masters 1,SBD,M,Single-ply
DQ,Christo Schoonraad,1963,South Africa,98.5,245,255,267.5,267.5,160,-170,-170,160.0,,,,,,100,Masters 1,SBD,M,Single-ply
1,Andrew Rodney,1965,Britain,109.3,285,315,330,330.0,175,185,190,190.0,300,310,-315,310.0,830,110,Masters 1,SBD,M,Single-ply
2,Bill Henderson,1960,New Zealand,108.4,290,297.5,302.5,302.5,190,195,-200,195.0,300,310,-320,310.0,807.5,110,Masters 1,SBD,M,Single-ply
3,Brian Callahan,1963,USA,108.95,287.5,302.5,312.5,312.5,200,-210,210,210.0,285,-297.5,-297.5,285.0,807.5,110,Masters 1,SBD,M,Single-ply
4,Helgard Coertze,1962,South Africa,109.3,300,310,315,315.0,-195,195,-197.5,195.0,275,-295,-300,275.0,785,110,Masters 1,SBD,M,Single-ply
5,Eric Charvoz,1963,France,100.1,270,280,-290,280.0,190,-197.5,-197.5,190.0,260,-270,270,270.0,740,110,Masters 1,SBD,M,Single-ply
6,Werner Kampl,1964,Austria,106.65,250,270,-285,270.0,165,-175,-175,165.0,275,295,302.5,302.5,737.5,110,Masters 1,SBD,M,Single-ply
7,Ron Strong,1958,Canada,108.55,255,-265,265,265.0,165,-175,175,175.0,280,292.5,-297.5,292.5,732.5,110,Masters 1,SBD,M,Single-ply
8,Joachim Flett,1958,Germany,100.35,220,230,-250,230.0,195,202.5,210,210.0,200,220,235,235.0,675,110,Masters 1,SBD,M,Single-ply
9,Rajesh Toora,1962,India,100.05,240,260,-275,260.0,100,120,-130,120.0,230,250,-270,250.0,630,110,Masters 1,SBD,M,Single-ply
1,Sergey Sidenko,1961,Russia,123.9,295,-320,320,320.0,225,237.5,247.5,247.5,270,280,290,290.0,857.5,125,Masters 1,SBD,M,Single-ply
2,Aulis Aalto,1962,Finland,117.4,280,300,-307.5,300.0,207.5,215,222.5,222.5,287.5,300,310,310.0,832.5,125,Masters 1,SBD,M,Single-ply
3,Ken Ryder,1961,USA,124.3,270,-282.5,282.5,282.5,230,240,-250,240.0,287.5,307.5,-312.5,307.5,830,125,Masters 1,SBD,M,Single-ply
4,William Collins,1961,USA,122,287.5,300,-310,300.0,-222.5,222.5,-230,222.5,272.5,292.5,-295,292.5,815,125,Masters 1,SBD,M,Single-ply
5,Brian Lee,1961,Britain,115.85,250,-275,-275,250.0,190,200,205,205.0,272.5,-292.5,-292.5,272.5,727.5,125,Masters 1,SBD,M,Single-ply
6,P.M. Balachandra,1965,India,112.8,215,235,-250,235.0,115,125,-135,125.0,180,200,-215,200.0,560,125,Masters 1,SBD,M,Single-ply
1,Olav Hulbakviken Knut,1964,Norway,133.45,-330,330,-350,330.0,230,240,245,245.0,300,320,-330,320.0,895,125+,Masters 1,SBD,M,Single-ply
2,Deron Rogers,1965,USA,135.95,310,322.5,-332.5,322.5,190,-202.5,207.5,207.5,320,330,335,335.0,865,125+,Masters 1,SBD,M,Single-ply
3,Reijo Hänninen,1958,Finland,127.9,310,320,-330,320.0,190,,,190.0,280,-287.5,302.5,302.5,812.5,125+,Masters 1,SBD,M,Single-ply
4,Mykhaylo Chekushkin,1960,Ukraine,125.3,310,332.5,345,345.0,190,-200,-205,190.0,260,275,-280,275.0,810,125+,Masters 1,SBD,M,Single-ply
5,Frank Girrulat,1959,Germany,128.05,250,265,275,275.0,220,230,240,240.0,280,290,-297.5,290.0,805,125+,Masters 1,SBD,M,Single-ply
6,Hanie Smith,1960,South Africa,144.25,250,275,300,300.0,170,-217.5,-225,170.0,240,250,-260,250.0,720,125+,Masters 1,SBD,M,Single-ply
7,Tommy Knudsen,1964,Denmark,125.15,-230,-255,255,255.0,-165,165,-175,165.0,265,-282.5,-290,265.0,685,125+,Masters 1,SBD,M,Single-ply
DQ,Pertti Lähteenmäki,1959,Finland,131.1,-260,-265,-270,,100,-102.5,-102.5,100.0,-282.5,-292.5,-292.5,,,125+,Masters 1,SBD,M,Single-ply
1,Vladimir Shishkin,1950,Russia,55.4,150,165,-175,165.0,105,110,115,115.0,160,175,-182.5,175.0,455,56,Masters 2,SBD,M,Single-ply
1,James Kavarnos,1955,USA,59.9,170,-180,-180,170.0,-102.5,-102.5,102.5,102.5,182.5,187.5,190,190.0,462.5,60,Masters 2,SBD,M,Single-ply
2,Seiichi Mashimo,1947,Japan,59.85,-150,155,165,165.0,95,102.5,-107.5,102.5,170,180,-192.5,180.0,447.5,60,Masters 2,SBD,M,Single-ply
DQ,Hiroyuki Isagawa,1953,Japan,59.55,205,215,222.5,222.5,-180,-185,-185,,215,225,-235,225.0,,60,Masters 2,SBD,M,Single-ply
DQ,Mukul Vyas,1954,India,59.9,140,-150,-150,140.0,-110,-110,-110,,-160,,,,,60,Masters 2,SBD,M,Single-ply
1,Brendon Rohan,1952,USA,66.95,165,180,190,190.0,132.5,140,145,145.0,222.5,232.5,235,235.0,570,67.5,Masters 2,SBD,M,Single-ply
2,Mike McBride,1956,Britain,66.6,180,190,200,200.0,110,115,-120,115.0,220,235,-255,235.0,550,67.5,Masters 2,SBD,M,Single-ply
3,Alain Cuvelier,1953,France,66.65,-210,210,-220,210.0,115,125,-127.5,125.0,210,-220,-220,210.0,545.0,67.5,Masters 2,SBD,M,Single-ply
4,Jean-Jacques Chesnais,1949,France,66.65,155,165,-170,165.0,127.5,132.5,-135,132.5,170,180,187.5,187.5,485,67.5,Masters 2,SBD,M,Single-ply
5,Heimo Törmä,1950,Finland,66.7,150,165,170,170.0,95,100,-105,100.0,165,180,-185,180.0,450,67.5,Masters 2,SBD,M,Single-ply
1,Raymond Guyon,1955,France,71.65,210,225,230,230.0,127.5,135,140,140.0,220,235,-240,235.0,605,75,Masters 2,SBD,M,Single-ply
2,Glyn Moore,1951,Canada,74.05,220,-230,230,230.0,130,137.5,-142.5,137.5,225,-240,-240,225.0,592.5,75,Masters 2,SBD,M,Single-ply
3,Claude Couturier,1952,France,74.1,207.5,-225,-225,207.5,132.5,137.5,140,140.0,215,225,-230,225.0,572.5,75,Masters 2,SBD,M,Single-ply
4,Stan Macrow,1949,Britain,74.15,185,195,200,200.0,-145,150,-155,150.0,205,-212.5,-212.5,205.0,555,75,Masters 2,SBD,M,Single-ply
5,K.S. Chauhan,1952,India,71.05,90,100,110,110.0,50,60,-65,60.0,100,110,120,120.0,290,75,Masters 2,SBD,M,Single-ply
1,Vasiliy Glinin,1955,Russia,81.6,250,260,267.5,267.5,160,170,177.5,177.5,245,260,280,280.0,725,82.5,Masters 2,SBD,M,Single-ply
2,Lutz Schuricht,1951,Germany,82.1,240,255,-265,255.0,-175,175,-185,175.0,225,240,-252.5,240.0,670,82.5,Masters 2,SBD,M,Single-ply
3,Tadashi Tachibana,1949,Japan,81.75,215,230,235,235.0,-180,180,-190,180.0,200,215,-232.5,215.0,630,82.5,Masters 2,SBD,M,Single-ply
4,Dieter Hundertmark,1954,Germany,81.95,200,210,220,220.0,145,-150,150,150.0,200,215,222.5,222.5,592.5,82.5,Masters 2,SBD,M,Single-ply
5,Lawrence Arendse,1954,South Africa,81.1,190,200,215,215.0,115,125,-135,125.0,190,210,232.5,232.5,572.5,82.5,Masters 2,SBD,M,Single-ply
6,Mick Amey,1949,Britain,78.35,-185,185,-200,185.0,107.5,115,-120,115.0,205,220,-225,220.0,520,82.5,Masters 2,SBD,M,Single-ply
7,Johannes Booysen,1950,South Africa,81.9,-140,140,-155,140.0,90,-100,-100,90.0,160,180,-190,180.0,410,82.5,Masters 2,SBD,M,Single-ply
1,Stefan Sochański,1948,Poland,89.7,-265,265,285,285.0,170,-177.5,177.5,177.5,260,277.5,-295,277.5,740,90,Masters 2,SBD,M,Single-ply
2,Rainier Herrmann,1955,Germany,88.95,230,245,255,255.0,135,140,-145,140.0,225,250,262.5,262.5,657.5,90,Masters 2,SBD,M,Single-ply
3,Scot Seguin,1952,Canada,89.35,227.5,-235,235,235.0,137.5,142.5,-150,142.5,245,255,-265,255.0,632.5,90,Masters 2,SBD,M,Single-ply
4,Don Cormier,1953,Canada,87.15,225,240,257.5,257.5,162.5,167.5,-182.5,167.5,180,190,-200,190.0,615,90,Masters 2,SBD,M,Single-ply
1,Floyd Givens,1951,USA,98.15,257.5,267.5,275,275.0,185,195,-197.5,195.0,267.5,295,310,310.0,780,100,Masters 2,SBD,M,Single-ply
2,Reinhard Melzig,1955,Germany,98.45,265,-275,275,275.0,165,-172.5,-175,165.0,290,310,-320,310.0,750,100,Masters 2,SBD,M,Single-ply
3,Christian Buchs,1947,France,98.05,240,260,270,270.0,135,145,152.5,152.5,230,250,-262.5,250.0,672.5,100,Masters 2,SBD,M,Single-ply
4,Kevin McNamara,1948,South Africa,96.9,195,210,-220,210.0,110,-115,-115,110.0,235,247.5,-262.5,247.5,567.5,100,Masters 2,SBD,M,Single-ply
DQ,Michael Musto,1955,USA,98.55,,,,,,,,,,,,,,100,Masters 2,SBD,M,Single-ply
1,Arthur White,1951,Britain,107.35,-255,260,270,270.0,155,-165,-165,155.0,300,315,-320,315.0,740,110,Masters 2,SBD,M,Single-ply
2,Vladimir Stepanenko,1954,Russia,100.05,280,295,300,300.0,130,-140,140,140.0,260,280,-300,280.0,720,110,Masters 2,SBD,M,Single-ply
3,Michel Lefevre,1949,France,106.8,-230,230,245,245.0,175,182.5,185,185.0,275,285,-292.5,285.0,715,110,Masters 2,SBD,M,Single-ply
4,Marcos Ramirez,1953,Venezuela,106,250,262.5,270,270.0,145,-155,155,155.0,260,275,-282.5,275.0,700,110,Masters 2,SBD,M,Single-ply
5,Crayton Taylor,1946,USA,108.2,242.5,257.5,265,265.0,-162.5,162.5,-167.5,162.5,242.5,255,265,265.0,692.5,110,Masters 2,SBD,M,Single-ply
6,William Sindelar,1951,USA,109.5,240,-252.5,252.5,252.5,155,170,-175,170.0,235,250,260,260.0,682.5,110,Masters 2,SBD,M,Single-ply
7,Manfred Georg,1955,Germany,104.5,220,240,-265,240.0,200,207.5,215,215.0,200,220,-230,220.0,675,110,Masters 2,SBD,M,Single-ply
8,Helmuth Platzer,1951,Germany,105.85,220,235,245,245.0,140,147.5,152.5,152.5,230,250,267.5,267.5,665,110,Masters 2,SBD,M,Single-ply
9,Allan Fuglsang,1950,Denmark,109.4,200,-210,,200.0,185,190,-202.5,190.0,225,250,-267.5,250.0,640,110,Masters 2,SBD,M,Single-ply
10,Georg Boström,1947,Sweden,103.15,100,,,100.0,75,,,75.0,125,,,125.0,300,110,Masters 2,SBD,M,Single-ply
DQ,Yves Ponnau,1952,France,100.1,245,260,270,270.0,-130,-130,,,265,280,-290,280.0,,110,Masters 2,SBD,M,Single-ply
1,Volodymyr Ivanenko,1955,Ukraine,117.55,330,352.5,360,360.0,190,205,215,215.0,280,290,-322.5,290.0,865.0,125,Masters 2,SBD,M,Single-ply
2,Roger Hendrix,1955,USA,123.35,295,315,-325,315.0,-205,205,-220,205.0,295,315,-320.5,315.0,835,125,Masters 2,SBD,M,Single-ply
3,Bernd Helfenbein,1955,Germany,114.3,250,-265,270,270.0,180,187.5,192.5,192.5,230,245,255,255.0,717.5,125,Masters 2,SBD,M,Single-ply
4,Carlos Bolaños,1947,Venezuela,110.2,-230,230,235,235.0,120,130,-135,130.0,230,245,-255,245.0,610,125,Masters 2,SBD,M,Single-ply
5,Raj Agnihotri,1955,India,116.45,180,215,-235,215.0,110,120,125,125.0,180,210,-225,210.0,550,125,Masters 2,SBD,M,Single-ply
DQ,Curtis Wainwright,1954,USA,119.7,240,-250,257.5,257.5,-180,-180,-180,,220,230,-240,230.0,,125,Masters 2,SBD,M,Single-ply
DQ,William Pakoti,1953,New Zealand,121.55,-250,-250,-250,,152.5,-160,-160,152.5,220,235,247.5,247.5,,125,Masters 2,SBD,M,Single-ply
1,Alexey Bulichev,1954,Russia,125.11,270,290,305,305.0,210,220,-230,220.0,250,270,-280,270.0,795,125+,Masters 2,SBD,M,Single-ply
2,Wietze Steyn,1948,South Africa,128.95,280,295,-307.5,295.0,150,160,172.5,172.5,270,280,282.5,282.5,750,125+,Masters 2,SBD,M,Single-ply
3,William Tau,1952,New Zealand,139.25,260,275,-292.5,275.0,-100,170,175,175.0,140,200,220,220.0,670,125+,Masters 2,SBD,M,Single-ply
1,R.K. Surati,1945,India,51.1,110,130,135,135.0,70,85,90,90.0,130,150,160,160.0,385,52,Masters 3,SBD,M,Single-ply
1,Shinjun Oshiro,1943,Japan,55.8,155,170,175.5,175.5,122.5,-127.5,-127.5,122.5,160,-170,-170,160.0,457.5,56,Masters 3,SBD,M,Single-ply
1,Toshiaki Aita,1941,Japan,59.55,-170,170,-180,170.0,95,-105,-105,95.0,180,190,195,195.0,460,60,Masters 3,SBD,M,Single-ply
2,Marcel Nivault,1933,France,60,150,160,170,170.0,50,55,-60,55.0,175,190,200,200.0,425,60,Masters 3,SBD,M,Single-ply
1,Horst Diter,1943,Denmark,66.35,187.5,-202.5,202.5,202.5,85,90,100,100.0,190,200,210,210.0,512.5,67.5,Masters 3,SBD,M,Single-ply
2,Keiichi Yamai,1938,Japan,64.7,130,-145,145,145.0,70,80,-85,80.0,140,150,-160,150.0,375,67.5,Masters 3,SBD,M,Single-ply
1,Toshihiko Sato,1940,Japan,74.5,200,220,230,230.0,135,-145,-145,135.0,210,230,-240,230.0,595,75,Masters 3,SBD,M,Single-ply
2,Arvo Tölli,1935,Finland,74.2,180,192.5,-200,192.5,145,-150,-150,145.0,180,192.5,-195,192.5,530,75,Masters 3,SBD,M,Single-ply
3,Kjell Andersson,1945,Sweden,74,-170,175,-190,175.0,105,110,-115,110.0,210,220,230,230.0,515,75,Masters 3,SBD,M,Single-ply
4,George Leggett,1929,Britain,72.65,185,-195,-195,185.0,100,-105,107.5,107.5,190,200,-207.5,200.0,492.5,75,Masters 3,SBD,M,Single-ply
5,Robert Sainati,1945,USA,72.6,137.5,-155,-155,137.5,75,82.5,87.5,87.5,-177.5,177.5,192.5,192.5,417.5,75,Masters 3,SBD,M,Single-ply
6,Dan Goodwin,1932,USA,74.65,75,90,97.5,97.5,75,82.5,-85,82.5,115,132.5,142.5,142.5,322.5,75,Masters 3,SBD,M,Single-ply
DQ,Svend Stensgaard,1922,Denmark,72.25,-80,-80,-80,,65,-70,70,70.0,125,140,-150,140.0,,75,Masters 3,SBD,M,Single-ply
DQ,Georges Llosa,1942,France,74.15,-170,-170,-170,,-125,125,-130,125.0,-150,160,180,180.0,,75,Masters 3,SBD,M,Single-ply
1,Rabah Bouchakour Ali,1945,France,79.05,200,210,220,220.0,-140,140,-147.5,140.0,205,230,-255,230.0,590,82.5,Masters 3,SBD,M,Single-ply
2,Charles Schuller,1940,USA,81.3,152.5,172.5,-182.5,172.5,105,115,-120,115.0,182.5,192.5,200,200.0,487.5,82.5,Masters 3,SBD,M,Single-ply
3,James Lyons,1940,USA,80.15,172.5,182.5,187.5,187.5,112.5,-120,-120,112.5,172.5,-182.5,185,185.0,485,82.5,Masters 3,SBD,M,Single-ply
4,Tony Thomas,1945,New Zealand,81.3,170,-190,-190,170.0,115,120,125,125.0,170,185,-190,185.0,480,82.5,Masters 3,SBD,M,Single-ply
5,Heikki Malkavaara,1945,Finland,78.65,-150,150,165,165.0,110,-115,115,115.0,170,180,-192.5,180.0,460,82.5,Masters 3,SBD,M,Single-ply
DQ,Boris Burlakov,1940,Russia,81.75,-150,-150,-150,,-110,110,-115,110.0,-140,140,145,145.0,,82.5,Masters 3,SBD,M,Single-ply
1,Kari Mattila,1945,Sweden,89.6,-210,210,230,230.0,140,147.5,152.5,152.5,245,255,260,260.0,642.5,90,Masters 3,SBD,M,Single-ply
2,David Battisson,1945,Britain,88.7,210,220,-225,220.0,155,-160,-160,155.0,240,255,-262.5,255.0,630,90,Masters 3,SBD,M,Single-ply
3,Hans Behnke,1935,Germany,88.5,110,120,130,130.0,85,90,-95,90.0,160,170,175,175.0,395,90,Masters 3,SBD,M,Single-ply
4,Bjarne Palm,1937,Denmark,88.6,125,135,-145,135.0,95,102.5,-105,102.5,135,145,-157.5,145.0,382.5,90,Masters 3,SBD,M,Single-ply
1,William Helmich,1942,USA,97.65,-202.5,202.5,-220,202.5,152.5,165.0,-170,165.0,245,260,-265,260.0,627.5,100,Masters 3,SBD,M,Single-ply
2,Steen Wissing,1945,Denmark,91.55,-210,-215,220,220.0,125,135,-142.5,135.0,210,215,220,220.0,575,100,Masters 3,SBD,M,Single-ply
3,François Chazelle,1938,France,92.15,200,215,-220,215.0,90,95,100,100.0,240,250,-262.5,250.0,565,100,Masters 3,SBD,M,Single-ply
4,Paul Jaffa,1944,South Africa,95.55,160,170,182.5,182.5,-135,135,-142.5,135.0,205,215,-222.5,215.0,532.5,100,Masters 3,SBD,M,Single-ply
5,Angel Comelli Luis,1942,Argentina,91.25,-190,190,205,205.0,105,115,-125,115.0,190,210,-220,210.0,530,100,Masters 3,SBD,M,Single-ply
6,Yury Isagulov,1944,Russia,90.15,195,-210,-210,195.0,115,-122.5,-122.5,115.0,190,205,-212.5,205.0,515,100,Masters 3,SBD,M,Single-ply
7,Tapani Puhakka,1944,Finland,90.75,150,160,170,170.0,122.5,132.5,-140,132.5,200,212.5,-220,212.5,515,100,Masters 3,SBD,M,Single-ply
1,Truls Kristensen,1939,Norway,107.6,230,245,-252.5,245.0,160,167.5,-172.5,167.5,210,230,232.5,232.5,645,110,Masters 3,SBD,M,Single-ply
2,Stan Chatis,1937,USA,106.3,175,192.5,200,200.0,140,147.5,155,155.0,210,222.5,-230,222.5,577.5,110,Masters 3,SBD,M,Single-ply
3,Heinz Vierthaler,1943,Germany,100.7,170,-180,-180,170.0,120,-125,-125,120.0,190,200,-210,200.0,490,110,Masters 3,SBD,M,Single-ply
4,Theunis Naude,1944,South Africa,100.05,150,-170,-180,150.0,-95,95,-105,95.0,-212.5,-212.5,212.5,212.5,457.5,110,Masters 3,SBD,M,Single-ply
1,William Morris,1944,USA,121.35,225,245,252.5,252.5,182.5,192.5,200.0,200.0,217.5,235,-252.5,235.0,687.5,125,Masters 3,SBD,M,Single-ply
2,Robert Grisham,1939,USA,116.5,222.5,232.5,-245,232.5,137.5,142.5,-147.5,142.5,192.5,202.5,210,210.0,585,125,Masters 3,SBD,M,Single-ply
1,Raimo Sandelin,1940,Finland,128.05,175,190,202.5,202.5,130,-175,180,180.0,170,180,190,190.0,572.5,125+,Masters 3,SBD,M,Single-ply
2,Harry Heyman,1942,USA,130.65,195,205,210,210.0,105,-115,115,115.0,195,205,210,210.0,535,125+,Masters 3,SBD,M,Single-ply
1,Sylviane Bechar,1959,France,45.85,112.5,120,125,125.0,67.5,72.5,75,75.0,125,130,137.5,137.5,337.5,48,Masters 1,SBD,F,Single-ply
2,Marion Friedrich,1965,Germany,45.15,127.5,130,-132.5,130.0,82.5,-85.5,85.5,85.5,112.5,117.5,120,120.0,335,48,Masters 1,SBD,F,Single-ply
3,Svetlana Eremenko,1957,Russia,47.25,115,125,130,130.0,52.5,57.5,62.5,62.5,125,-135,-135,125.0,317.5,48,Masters 1,SBD,F,Single-ply
DQ,Shoko Tanaka,1964,Japan,47.3,-105,-105,-105,,62.5,67.5,-70,67.5,110,-120,-120,110.0,,48,Masters 1,SBD,F,Single-ply
1,Natalia Ivanova,1964,Russia,51.05,125,135,-142.5,135.0,65,70,72.5,72.5,125,130,135,135.0,342.5,52,Masters 1,SBD,F,Single-ply
2,Junko Kitamura,1963,South Africa,48.05,115,125,130,130.0,75,80,-82.5,80.0,115,122.5,-130,122.5,332.5,52,Masters 1,SBD,F,Single-ply
3,Mirriam Sinclair,1958,South Africa,48.7,100,115,120,120.0,55,-62.5,-67.5,55.0,110,120,130,130.0,305,52,Masters 1,SBD,F,Single-ply
4,Catalina Oca,1956,Philippines,51.5,95,105,-110,105.0,62.5,65,70,70.0,112.5,122.5,-125,122.5,297.5,52,Masters 1,SBD,F,Single-ply
1,Kate Dingle-Craig,1957,USA,55.6,-110,110,-120,110.0,60,-65,65,65.0,120,130,-137.5,130.0,305,56,Masters 1,SBD,F,Single-ply
DQ,Patricia Siveny,1960,USA,55.45,-117.5,117.5,-127.5,117.5,-85,-85,-85,,132.5,-140,140,140.0,,56,Masters 1,SBD,F,Single-ply
1,Maria Brightwater-Wharf,1961,New Zealand,56.15,145,-150,-150,145.0,75,77.5,80,80.0,145,150,152.5,152.5,377.5,60,Masters 1,SBD,F,Single-ply
2,Angela Simons,1961,USA,58.75,122.5,-135,-135,122.5,92.5,95,-97.5,95.0,130,140,-145,140.0,357.5,60,Masters 1,SBD,F,Single-ply
3,Klothilde Bruder,1956,Germany,57.25,120,127.5,-132.5,127.5,65,72.5,75,75.0,127.5,137.5,-140,137.5,340,60,Masters 1,SBD,F,Single-ply
4,Sylvie Mathias,1964,France,57.9,105,110,115,115.0,75,77.5,80,80.0,135,140,-147.5,140.0,335,60,Masters 1,SBD,F,Single-ply
5,Gaby Lesting,1959,Britain,58.55,110,115,-120,115.0,67.5,-72.5,-72.5,67.5,125,135,-140,135.0,317.5,60,Masters 1,SBD,F,Single-ply
6,Gina Stepleton,1958,USA,58.85,82.5,92.5,97.5,97.5,50,-55,-55,50.0,102.5,110,112.5,112.5,260,60,Masters 1,SBD,F,Single-ply
7,Margit Flett,1959,Germany,57.85,85,90,95,95.0,57.5,60,-62.5,60.0,85,92.5,97.5,97.5,252.5,60,Masters 1,SBD,F,Single-ply
DQ,Magali Garnier,1962,France,58.2,132.5,-140,-140,132.5,-67.5,-67.5,-67.5,,137.5,145,-150,145.0,,60,Masters 1,SBD,F,Single-ply
1,Paula Houston,1961,USA,67.2,-155,155,-165,155.0,97.5,102.5,-105,102.5,160,170,175,175.0,432.5,67.5,Masters 1,SBD,F,Single-ply
2,Ruth Welding,1956,USA,66.2,125,135,140,140.0,70,75,-80,75.0,142.5,152.5,157.5,157.5,372.5,67.5,Masters 1,SBD,F,Single-ply
1,Jackie Blasbery,1963,Britain,71.7,150,160,167.5,167.5,90,95,102.5,102.5,170,182.5,190,190.0,460,75,Masters 1,SBD,F,Single-ply
2,Olga Berseneva,1962,Russia,70.3,160,-170,-170,160.0,-90,95,102.5,102.5,165,172.5,177.5,177.5,440,75,Masters 1,SBD,F,Single-ply
3,Lynne Nelson,1958,USA,69.7,137.5,145,-152.5,145.0,85,90,-95,90.0,190,200,-205,200.0,435,75,Masters 1,SBD,F,Single-ply
4,Laura Styrlung,1964,USA,73.2,130,142.5,150,150.0,100,-105,105,105.0,162.5,175,-180,175.0,430,75,Masters 1,SBD,F,Single-ply
5,Elina Aalto,1963,Finland,72.85,-117.5,-117.5,117.5,117.5,85,90,-97.5,90.0,115,125,132.5,132.5,340,75,Masters 1,SBD,F,Single-ply
1,Erlina Pecante,1964,Philippines,80.6,190,205.0,,205.0,95,100,105,105.0,170,-197.5,-197.5,170.0,480,82.5,Masters 1,SBD,F,Single-ply
1,Jean Maton,1963,Britain,82.55,160,170,175,175.0,100,110,-115,110.0,160,175,182.5,182.5,467.5,90,Masters 1,SBD,F,Single-ply
2,Malinda Baum,1963,USA,82.9,152.5,160,-167.5,160.0,92.5,100,-102.5,100.0,165,182.5,-195,182.5,442.5,90,Masters 1,SBD,F,Single-ply
3,Sandhe Kude,1958,India,84.4,-55,55,-70,55.0,30,-35,-35,30.0,80,100,-120,100.0,185,90,Masters 1,SBD,F,Single-ply
1,Susan Hallen,1957,USA,112.75,140,-150,150,150.0,105,120,-132.5,120.0,140,155,162.5,162.5,432.5,90+,Masters 1,SBD,F,Single-ply
DQ,Liliane Boulle,1946,France,43.4,-90,-90,-90,,-52.5,52.5,-55,52.5,90,100,105,105.0,,44,Masters 2,SBD,F,Single-ply
1,Vuokko Viitasaari,1954,Finland,47.65,120,135.5,,135.5,67.5,72.5,75,75.0,140,145.0,150.0,150.0,360.0,48,Masters 2,SBD,F,Single-ply
2,Seija Turunen,1947,Finland,47.85,75,85,-90,85.0,53,60,63,63.0,95,100,-115,100.0,247.5,48,Masters 2,SBD,F,Single-ply
1,Marie-Françoise Guinard,1942,France,50.2,87.5,90,95,95.0,47.5,50,52.5,52.5,125,130,-140,130.0,277.5,52,Masters 2,SBD,F,Single-ply
2,Eila Kumpuniemi,1942,Finland,51.1,-85,85,-95,85.0,55,60,62.5,62.5,105,-115,117.5,117.5,265,52,Masters 2,SBD,F,Single-ply
1,Lucienne Daumas,1955,France,55.2,122.5,130,135,135.0,-72.5,75,77.5,77.5,145,150,152.5,152.5,365,56,Masters 2,SBD,F,Single-ply
2,Hatsuko Kimura,1951,Japan,53.9,-130,130,-140,130.0,70,-80,-80,70.0,130,150,-162.5,150.0,350,56,Masters 2,SBD,F,Single-ply
3,Mridula Agarwal,1955,India,55,70,80,92.5,92.5,40,45,-50,45.0,85,95,107.5,107.5,245,56,Masters 2,SBD,F,Single-ply
1,Christine Wender,1955,Brazil,57.65,125,132.5,137.5,137.5,67.5,75,80,80.0,120,127.5,132.5,132.5,350,60,Masters 2,SBD,F,Single-ply
2,Barbara Zintsmaster,1954,USA,56.25,-115,115,122.5,122.5,57.5,-62.5,-62.5,57.5,125,132.5,140,140.0,320,60,Masters 2,SBD,F,Single-ply
3,Daria Louarduzzi,1951,France,57.1,-115,115,-127.5,115.0,52.5,57.5,-60,57.5,117.5,125,130,130.0,302.5,60,Masters 2,SBD,F,Single-ply
4,Ritva Vainio,1949,Finland,58.05,65,-70,70,70.0,37.5,-42.5,-42.5,37.5,90,-100,100,100.0,207.5,60,Masters 2,SBD,F,Single-ply
1,Tatyana Fomina,1946,Russia,65.65,-160,160,170,170.0,55,62.5,70,70.0,160,172.5,182.5,182.5,422.5,67.5,Masters 2,SBD,F,Single-ply
2,Terry Lee,1954,USA,66.4,115,-122.5,-122.5,115.0,80,85,87.5,87.5,137.5,-142.5,-142.5,137.5,340,67.5,Masters 2,SBD,F,Single-ply
3,Rita Carlsson,1952,USA,65,115,-127.5,127.5,127.5,60,-65,-65,60.0,145,-150,-150,145.0,332.5,67.5,Masters 2,SBD,F,Single-ply
4,May-Gun Grönholm,1955,Finland,63.8,80,90,-97.5,90.0,42.5,47.5,52.5,52.5,100,112.5,117.5,117.5,260,67.5,Masters 2,SBD,F,Single-ply
1,Anita Thimm,1950,Germany,67.9,125,-135,-135,125.0,75,77.5,-80,77.5,160,167.5,172.5,172.5,375,75,Masters 2,SBD,F,Single-ply
2,Sonja McKinlay,1943,USA,72.95,115,122.5,130,130.0,72.5,-82.5,82.5,82.5,120,127.5,135,135.0,347.5,75,Masters 2,SBD,F,Single-ply
3,Anne Lehto,1951,Finland,68.1,90,-97.5,-100,90.0,55,60,-65,60.0,125,135,-150,135.0,285,75,Masters 2,SBD,F,Single-ply
4,Chowdary Ratan Moni Roy,1955,India,69.7,100,110,-115,110.0,45,-55,-55,45.0,100,122.5,-132.5,122.5,277.5,75,Masters 2,SBD,F,Single-ply
1,Susan Hollands,1951,Britain,81.5,170,180,182.5,182.5,80,85,87.5,87.5,160,170,177.5,177.5,447.5,82.5,Masters 2,SBD,F,Single-ply
2,Susanne Diter,1952,Denmark,82.5,-110,-120,120,120.0,57.5,62.5,65,65.0,110,-122.5,122.5,122.5,307.5,82.5,Masters 2,SBD,F,Single-ply
1,Eva Speth,1954,Germany,87.8,110,120,125,125.0,117.5,120.5,-122.5,120.5,130,140,145,145.0,390,90,Masters 2,SBD,F,Single-ply
