Name,Age,Sex,Division,Event,Equipment,BodyweightKg,WeightClassKg,Squat1Kg,Squat2Kg,Squat3Kg,Best3SquatKg,Bench1Kg,Bench2Kg,Bench3Kg,Best3BenchKg,Bench4Kg,Deadlift1Kg,Deadlift2Kg,Deadlift3Kg,Best3DeadliftKg,TotalKg,Place
Joanne Greagen,32,F,Open,SBD,Wraps,64.2,67.5,130,137.5,142.5,142.5,77.5,82.5,-85,82.5,,150,157.5,160.5,160.5,385.5,1
Nick Kroussos,21,M,Open,SBD,Wraps,73.6,75,170,180,190,190,105,112.5,115,115,,180,195,200,200,505,3
Sam Nayef,29,M,Open,SBD,Wraps,82.1,82.5,190,200,-210,200,110,-120,-120,110,,200,210,-220,210,520,4
Michael Ceravolo,19,M,Open,SBD,Wraps,81.5,82.5,200,210,220,220,115,125,-127.5,125,,230,237.5,240,240,585,2
Nathan Rocks,24,M,Open,SBD,Wraps,113.4,125,160,180,200,200,170,200,220,220,230.5,220,250,280,280,700,1
