Place,Name,State,WeightClassKg,BodyweightKg,Age,Best3SquatKg,Best3BenchKg,Best3DeadliftKg,TotalKg,Sex,Division,Equipment,Event
1,Vanessa Ferla,TX,48,47.4,33,102.5,70.5,142.5,315.5,F,Open,Raw,SBD
1,Darla King,TX,56,54.1,43,127.5,83,142.5,353,F,Open,Raw,SBD
2,Carissa Stith,TX,56,55.1,34,130.5,77.5,133,341,F,Open,Raw,SBD
1,Latonia Sumuel,TX,75,74.9,37,145,87.5,182.5,415,F,Open,Raw,SBD
2,Neaomi Quartucci,TX,75,69.7,43,137.5,70,135,342.5,F,Open,Raw,SBD
1,Sophie Tran,TX,82.5,82.5,37,152.5,70,182.5,405,F,Open,Raw,SBD
2,Michelle Kebodeaux,TX,82.5,79.7,41,102.5,57.5,100,260,F,Open,Raw,SBD
1,Monica Gonzalez,TX,90,89.9,22,172.5,72.5,165,410,F,Open,Raw,SBD
1,Latonia Sumuel,TX,75,74.9,37,145,87.5,182.5,415,F,Submaster,Raw,SBD
1,Sophie Tran,TX,82.5,82.5,37,152.5,70,182.5,405,F,Submaster,Raw,SBD
1,Darla King,TX,56,54.1,43,127.5,83,142.5,353,F,Master 40-44,Raw,SBD
1,Neaomi Quartucci,TX,75,69.7,43,137.5,70,135,342.5,F,Master 40-44,Raw,SBD
1,Michelle Kebodeaux,TX,82.5,79.7,41,102.5,57.5,100,260,F,Master 40-44,Raw,SBD
1,Michael Maldonado,TX,90,83.1,13,137.5,65,137.5,340,M,Junior 13-15,Raw,SBD
1,Taylor Hull,TX,90,87.8,21,245,145,245,635,M,Junior 20-23,Raw,SBD
1,Jade Bermea,TX,100,98.4,22,157.5,100,192.5,450,M,Junior 20-23,Raw,SBD
1,Xavier Tovar,TX,110,106.9,23,227.5,142.5,225,595,M,Junior 20-23,Raw,SBD
1,Austin Walker,TX,125,110.7,22,250,160,262.5,672.5,M,Junior 20-23,Raw,SBD
1,David Berube,TX,56,55.9,27,87.5,62.5,120,270,M,Open,Raw,SBD
1,Benny Le,TX,67.5,67,26,207.5,140,215,562.5,M,Open,Raw,SBD
1,Ricardo Moncibais,TX,75,73.2,34,172.5,110,187.5,470,M,Open,Raw,SBD
2,Kyle McFee,TX,75,68.4,25,137.5,100,182.5,420,M,Open,Raw,SBD
1,Ramiro Espinosa,TX,82.5,82,29,220,160,257.5,637.5,M,Open,Raw,SBD
2,Jose Cuevas,TX,82.5,82.4,29,202.5,125,237.5,565,M,Open,Raw,SBD
3,James Tanner,TX,82.5,78.1,28,177.5,122.5,210,510,M,Open,Raw,SBD
4,Alex Bazan,TX,82.5,80,26,170,122.5,182.5,475,M,Open,Raw,SBD
1,Taylor Hull,TX,90,87.8,21,245,145,245,635,M,Open,Raw,SBD
DQ,Huy Nguyen,TX,90,86.7,33,,92.5,207.5,,M,Open,Raw,SBD
DQ,Adam Moncibais,TX,90,87.1,25,210,147.5,,,M,Open,Raw,SBD
1,Jeremey King,TX,110,106.5,31,242.5,212.5,272.5,727.5,M,Open,Raw,SBD
1,Aaron Luther,TX,125,118.9,32,247.5,172.5,277.5,697.5,M,Open,Raw,SBD
1,Juan Perez,TX,140+,182.6,25,262.5,172.5,245,680,M,Open,Raw,SBD
1,Mike Reid,TX,82.5,78.9,52,182.5,117.5,207.5,507.5,M,Master 50-54,Raw,SBD
1,David Nix,TX,100,98.1,49,205,137.5,210,552.5,M,Master 45-49,Raw,SBD
1,Hannah Byrd,TX,75,71.6,19,142.5,42.5,130,315,F,Junior 18-19,Wraps,SBD
1,Deanna Goss,TX,52,50.8,44,87.5,45,102.5,235,F,Open,Wraps,SBD
1,Deanna Goss,TX,52,50.8,44,87.5,45,102.5,235,F,Master 40-44,Wraps,SBD
1,Anthony Norris,TX,100,96.52,33,200,115,235,550,M,Open,Wraps,SBD
2,William Smith,TX,100,97.3,32,187.5,100,235,522.5,M,Open,Wraps,SBD
1,Dae'Shaun Thomas,TX,140+,189.4,26,320,215,297.5,832.5,M,Open,Wraps,SBD
2,Rodolfo Rendon,TX,140+,148.1,32,265,165,237.5,667.5,M,Open,Wraps,SBD
1,John Smith,TX,82.5,81.4,55,115,82.5,150,347.5,M,Master 55-59,Wraps,SBD
1,Ramiro Espinosa,TX,82.5,82,29,,160,,160,M,Open,Raw,B
1,VH Shelton,TX,90,87.6,41,,167.5,,167.5,M,Open,Raw,B
1,VH Shelton,TX,90,87.6,41,,167.5,,167.5,M,Master 40-44,Raw,B
1,David Nix,TX,100,98.1,49,,137.5,,137.5,M,Master 45-49,Raw,B
1,Robert Cook,TX,110,105,50,,182.5,,182.5,M,Master 50-54,Raw,B
1,Ramiro Espinosa,TX,82.5,82,29,,,257.5,257.5,M,Open,Raw,D
1,Christopher Kupovics,TX,90,87.3,30,,,217.5,217.5,M,Open,Raw,D
1,Harvey Pendleton,TX,90,84.4,71,,,192.5,192.5,M,Master 70-74,Raw,D
1,David Nix,TX,100,98.1,49,,,210,210,M,Master 45-49,Raw,D
1,Darla King,TX,56,54.1,43,,83,142.5,225.5,F,Open,Raw,BD
2,Carissa Stith,TX,56,55.1,34,,77.5,133,210.5,F,Open,Raw,BD
1,Neaomi Quartucci,TX,75,69.7,43,,70,135,205,F,Open,Raw,BD
1,Michelle Kebodeaux,TX,82.5,79.7,41,,57.5,100,157.5,F,Open,Raw,BD
1,Carrie Daffin,TX,82.5,78.3,37,,47.5,137.5,185,F,Submaster,Raw,BD
1,Darla King,TX,56,54.1,43,,83,142.5,225.5,F,Master 40-44,Raw,BD
1,Neaomi Quartucci,TX,75,69.7,43,,70,135,205,F,Master 40-44,Raw,BD
1,Michelle Kebodeaux,TX,82.5,79.7,41,,57.5,100,157.5,F,Master 40-44,Raw,BD
1,Ramiro Espinosa,TX,82.5,82,29,,160,257.5,417.5,M,Open,Raw,BD
1,Aaron Luther,TX,125,118.9,32,,172.5,277.5,450,M,Open,Raw,BD
1,David Nix,TX,100,98.1,49,,137.5,210,347.5,M,Master 45-49,Raw,BD
