Name,Sex,AgeClass,BodyweightKg,WeightClassKg,Division,Equipment,Event,Squat1Kg,Squat2Kg,Squat3Kg,Squat4Kg,Best3SquatKg,Bench1Kg,Bench2Kg,Bench3Kg,Bench4Kg,Best3BenchKg,Deadlift1Kg,Deadlift2Kg,Deadlift3Kg,Deadlift4Kg,Best3DeadliftKg,TotalKg,Place
Emily Bailey,F,24-39,42.5,44,FO,Wraps,SBD,65,-75,75,,75,35,-37.5,40,42.5,40,80,90,100,105,100,215,1
Emma Ludlow,F,24-39,54.5,56,FO,Wraps,SBD,75,85,-95,,85,-60,60,-65,,60,102.5,110,120,,120,265,1
Deborah Kelly,F,45-49,55.8,56,F-M2,Wraps,SBD,85,90,92.5,,92.5,50,52.5,55,,55,100,107.5,112.5,,112.5,260,1
Neha Ainsworth,F,24-39,59.5,60,FO,Wraps,SBD,130,140,-150,,140,50,60,70,,70,165,175,-185,185,175,385,1
Nicola Wright,F,24-39,58.5,60,FO,Wraps,SBD,115,125,130,,130,-55,55,-60,,55,125,135,-140,,135,320,2
Joanne Grey,F,45-49,67.4,67.5,F-M2,Wraps,SBD,90,-100,100,,100,57.5,62.5,67.5,,67.5,120,130,140,,140,307.5,1
Natasha Oxford,F,24-39,67.3,67.5,FO,Wraps,SBD,100,107.5,112.5,,112.5,-45,50,-55,,50,130,140,145,,145,307.5,1
Petra Nolan,F,45-49,74,75,F-M2,Wraps,SBD,-100,100,105,,105,65,67.5,-70,,67.5,120,130,140,,140,312.5,1
Alexandra Alexa,F,24-39,72.5,75,FO,Wraps,SBD,125,130,135,,135,82.5,87.5,-92.5,,87.5,142.5,150,155,,155,377.5,1
Hannah Venn-Munns,F,24-39,74.4,75,FO,Wraps,SBD,90,97.5,102.5,,102.5,62.5,67.5,-72.5,,67.5,125,137.5,142.5,,142.5,312.5,2
Hanne Bingle,F,55-59,82.5,82.5,F-M4,Wraps,SBD,110,120,130,,130,70,80,90,,90,110,,,,110,330,1
Deslyn Williams,F,24-39,81,82.5,FO,Wraps,SBD,135,150,-160,,150,80,87.5,92.5,,92.5,130,145,160,,160,402.5,1
Budgie Mullan,M,70-74,65,67.5,M-M7,Wraps,SBD,70,85,92.5,,92.5,55,67.5,-70,,67.5,140,152.5,-160,,152.5,312.5,1
Sebastian Gaeta,M,24-39,65.5,67.5,MO,Wraps,SBD,160,170,180,,180,125,130,135,,135,220,-227.5,,,220,535,1
Aaron Phillips,M,20-23,73,75,M-J,Wraps,SBD,200,215,-222.5,,215,115,120,125,,125,180,195,200,,200,540,1
Lee Cutler,M,40-44,81.5,82.5,M-M1,Wraps,SBD,260,-290,290,,290,150,160,-165,,160,255,285,,,285,735,1
Lee Preece,M,24-39,82.5,82.5,MO,Wraps,SBD,220,250,,,250,170,-190,-190,,170,220,-245,-245,,220,640,1
Nick Lowe,M,24-39,81.5,82.5,MO,Wraps,SBD,200,212.5,-222.5,,212.5,-130,140,147.5,,147.5,230,245,-260,,245,605,2
Craig Wallis,M,24-39,81,82.5,MO,Wraps,SBD,120,140,160,,160,100,110,130,,130,210,265,-302.5,,265,555,3
Christian Hilton,M,24-39,82.5,82.5,MO,Wraps,SBD,170,-180,,,170,125,132.5,-140,,132.5,230,250,,,250,552.5,4
Luke Macdonald,M,24-39,77,82.5,MO,Wraps,SBD,195,-227.5,,,195,130,140,,,140,200,,,,200,535,5
Craig Blake,M,45-49,88.7,90,M-M2,Wraps,SBD,200,220,-240,,220,100,-112.5,112.5,,112.5,-200,220,235,,235,567.5,1
Kyle Grey,M,45-49,88.7,90,M-M2,Wraps,SBD,165,180,-190,,180,125,132.5,140,,140,210,222.5,-227.5,,222.5,542.5,2
Craig Buchanan,M,60-64,85,90,M-M5,Wraps,SBD,150,160,-172.5,,160,80,90,95,,95,145,155,165,,165,420,1
Steven Sepp,M,24-39,88.5,90,MO,Wraps,SBD,230,240,-245,,240,150,160,-165,,160,260,280,-290,,280,680,1
Dan Horne,M,24-39,84.5,90,MO,Wraps,SBD,175,187.5,192.5,,192.5,127.5,135,-142.5,,135,200,212.5,225,,225,552.5,2
Kevin Agius,M,24-39,87,90,MO,Wraps,SBD,170,-180,185,,185,110,115,-120,,115,205,210,-220,,210,510,3
Jason Cook,M,24-39,84.5,90,MO,Wraps,SBD,145,155,162.5,,162.5,110,120,-130,,120,175,190,200,,200,482.5,4
James Goddon,M,18-19,87.9,90,M-T3,Wraps,SBD,150,170,-200,,170,110,120,132.5,,132.5,200,225,235,,235,537.5,1
Greg Steele,M,20-23,97.5,100,M-J,Wraps,SBD,-215,215,232.5,,232.5,152.5,,,,152.5,275.5,,,,275.5,660.5,1
Matthew Connor,M,40-44,98.5,100,M-M1,Wraps,SBD,200,,,,200,192.5,-200,200,,200,280,300,,,300,700,1
Russell Ritchie-Haydn,M,24-39,97.9,100,MO,Wraps,SBD,200,220,230,,230,130,140,145,,145,215,230,240,,240,615,1
Anthony Cooper,M,20-23,108.8,110,M-J,Wraps,SBD,315,325,335,,335,220,230,-235,,230,280,300,310,,310,875,1
Aaron Delderfield,M,20-23,106.6,110,M-J,Wraps,SBD,170,190,210,,210,150,170,-180,,170,220,250,-255,,250,630,2
Ian Bingle,M,55-59,108.5,110,M-M4,Wraps,SBD,-160,160,170,,170,120,127.5,135,,135,220,230,,,230,535,1
Olli Rose,M,24-39,107.5,110,MO,Wraps,SBD,225,-232.5,232.5,,232.5,140,147.5,155,,155,225,240,250,,250,637.5,1
Szymon Kowalski,M,20-23,114,125,M-J,Wraps,SBD,-135,-145,145,,145,100,105,110,,110,135,145,152.5,,152.5,407.5,1
Carl Thompson,M,24-39,120.6,125,MO,Wraps,SBD,280,300,315,,315,215,227.5,-230,,227.5,260,280,300,,300,842.5,1
Ross Kenwright,M,24-39,126.5,140,MO,Wraps,SBD,-250,250,265,,265,140,160,-175,,160,270,280,290,,290,715,1
Dave Prosser,M,24-39,132,140,MO,Wraps,SBD,240,-275,275,,275,140,150,-167.5,,150,260,-305,-305,,260,685,2
Dave Mannering,M,55-59,73.5,75,M-M4-E,Multi-ply,SBD,250,270,-300,,270,150,160,-170,,160,-115,115,,,115,545,1
Leslie Watson,F,24-39,46.5,48,FO,Raw,B,,,,,,-55,55,-57.5,,55,,,,,,55,1
Faisal Hercules,M,16-17,65.5,67.5,M-T2,Raw,D,,,,,,,,,,,230,240,252.5,260,252.5,252.5,1
